{
  "sConfigVariables": [
    {
      "ConfigClass": "Mail",
      "ConfigName": "SmtpServer",
      "Value": "10.200.200.9"
    },
    {
      "ConfigClass": "Mail",
      "ConfigName": "SmtpPort",
      "Value": "26"
    },
    {
      "ConfigClass": "Mail",
      "ConfigName": "From",
      "Value": "info@kubion.nl"
    }
  ]
}
